{
	"IsUsingProfile": false,
	"ProfileName": "",
	"AWSConfigFilePath": "C:\\Users\\freddy.jopha\\.awsmobilejs\\project-aws-config\\portail-web-0bFXk.json",
	"AWSInfoFilePath": "C:\\Users\\freddy.jopha\\_dev\\2.x-aws-refactoring\\portail-web\\awsmobilejs\\.awsmobile\\info\\aws-info.json",
	"LastProfileSyncTime": ""
}